<?xml version="1.0" encoding="utf-8"?>
<!-- Generator: Adobe Illustrator 24.1.2, SVG Export Plug-In . SVG Version: 6.00 Build 0)  -->
<svg version="1.1" id="Warstwa_1" xmlns="http://www.w3.org/2000/svg" xmlns:xlink="http://www.w3.org/1999/xlink" x="0px" y="0px"
	 viewBox="0 0 19.7 12.2" style="enable-background:new 0 0 19.7 12.2;" xml:space="preserve">
<polygon points="9.9,12.2 0,2.1 2.2,0 9.9,7.9 17.5,0 19.7,2.1 "/>
</svg>
